Algorithm       Hash                                                                   Path
---------       ----                                                                   ----
SHA256          536F3BB0238E791BCB9368DF59A93E13C5201C94D1F610545AE098A64FB00AFE       2019_12_18-VECTO-3.3.5.1812.zip


Algorithm       Hash                                                                   Path
---------       ----                                                                   ----
SHA256          3C1D69C9D52EBFDE955AF39FAE96C9B0CB01349FAB505601E188574CC498AF6C       hashingcmd.exe
SHA256          9CE4F48F139BD2F78DAE35C3E21DE8127B92F8302DA2CA34BA59F0F9092B3767       HashingTool.exe
SHA256          75087939A62299501D0E6765FDDA3148C3B512608246011292353681577AC057       VECTO.exe
SHA256          45D46F7315BEB373E67B604B83F7C541A2E076B7D917CB79FA0A1DFC7FF75FE0       vectocmd.exe
SHA256          DFAFCC7DB86325703D529CA35B98D0D6F37F78D5FB446374A31A507021F03855       AdvancedAuxiliaryInterfaces.dll
SHA256          94F40F86EBBDD026E40B3A2A91DEF30BF2F4AC051AB3930D25C57DD10890174D       BusAuxiliaries.dll
SHA256          1796277A7AA9F2A9835C070D28FED44B3614CA221A2C1AFFC21A4C4E41194C3F       Castle.Core.dll
SHA256          DF8EC2E0245829DDEC5B79F1918C3AE3A3FA540A5A0E3C410E2B6EF0BEBC7927       Newtonsoft.Json.dll
SHA256          01CC80A16323F56191596013EEF1DE7E43271D6F991F4740B1FCC5195D8AB5BD       Ninject.dll
SHA256          DDF048DDAAA9B5D1D734CCA64E269E21465BD83E35F4FD2585AFB900AEF9FC9B       Ninject.Extensions.Factory.dll
SHA256          E196C0B84FA16CA895565C0AB611715F0721425F5E73340EA183FFA049F7D79B       NLog.dll
SHA256          9B7EB6DE62FF1E6A812FA47697FDB2ABCEAD85AA2554ABF12416FC569DD4462E       Omu.ValueInjecter.dll
SHA256          655B16DE4189F503BF467C2D46A8EA2AA317794AF95CFE9F4B76D90A29571D80       VectoCommon.dll
SHA256          8B39C8836D9B181E25892032AB5989DB720197C34B084D9638A3429BB72F3AA4       VectoCore.dll
SHA256          C69DB7379BFA770571CBAB8E3C4A7BC2B887BC3287A00A6BF901304CDB9BBBB4       VectoHashing.dll