Algorithm       Hash                                                                   Path
---------       ----                                                                   ----
SHA256          7A65764AD4F829ED63E4476490D1BD4767A1C672C0DCA59A2E011094BBFD0707       2019_11_19-VECTO-3.3.5.1783.zip

Algorithm       Hash                                                                   Path
---------       ----                                                                   ----
SHA256          F348C4C75D5C5F2FDB0152897F996898A2DF8C7C574993058F66302560D3D546       AdvancedAuxiliaryInterfaces.dll
SHA256          124F17FEEE6706FFA17BEEBD5D2C2D96C61766E1C6A962BBCB04031BD20C3811       BusAuxiliaries.dll
SHA256          1796277A7AA9F2A9835C070D28FED44B3614CA221A2C1AFFC21A4C4E41194C3F       Castle.Core.dll
SHA256          DF8EC2E0245829DDEC5B79F1918C3AE3A3FA540A5A0E3C410E2B6EF0BEBC7927       Newtonsoft.Json.dll
SHA256          01CC80A16323F56191596013EEF1DE7E43271D6F991F4740B1FCC5195D8AB5BD       Ninject.dll
SHA256          DDF048DDAAA9B5D1D734CCA64E269E21465BD83E35F4FD2585AFB900AEF9FC9B       Ninject.Extensions.Factory.dll
SHA256          E196C0B84FA16CA895565C0AB611715F0721425F5E73340EA183FFA049F7D79B       NLog.dll
SHA256          9B7EB6DE62FF1E6A812FA47697FDB2ABCEAD85AA2554ABF12416FC569DD4462E       Omu.ValueInjecter.dll
SHA256          700BA8B5A2B9B8A1ACE9ED9971FBE132889BCB4181823FEC89BD86FE3F30E4CD       VectoCommon.dll
SHA256          A86937C84D67A6D28684216541FD34692418E2F51C028BCA3006F816AEF4403B       VectoCore.dll
SHA256          D79B30E7C4C43B73DA3853B6C48504EC7C4D8923D2539EC5D2EAD748F7BB62A6       VectoHashing.dll
SHA256          67E951A2673452B8D39ED00A435E5C35973221F2AEB71C8AA0CE17BAFE098FEF       hashingcmd.exe
SHA256          EFBEE553D1829BB73C100BF31ED037345E3587D7FC611FD88AA24F34892F44F6       HashingTool.exe
SHA256          9AB612A9B65F6630C78E1583A3EE7CBB30CF3F0E155979FFC7D925B565D5C846       VECTO.exe
SHA256          2AF1E1580449E8D624EC5E9249CB1B831333C2FDD30C32F25A9AE00D1467BEF4       vectocmd.exe


